5250
4500
5000
6350
4750
6600
6000
4000
1500
3500
3600
6400
6300
3800
1250
1750
3000
5500
6450
2000
1800
1300
6250
2500
2800
2900
4600
1000
1700
6500
3950
2400
5650
4900
3100
2600
2200
2700
5900
4250
4200
3450
6225
6200
2100
3250
2750
2550
3350
3650
4800
5750
1150
5200
4850
6100
5700
5400
4100
5100
3300
5600
4700
1200
4350
5300
2350
5450
6325
6550
4650
4550
2300
1650
3700
1400
500
5800
5150
5950
3750
2650
3900
1900
1600
1350
