'''        <div class = 'col-md-3'>
			<label for = '%s'>%s:</label>
			<select class = 'form-control input-md' name = '%s'>'''%(key,key,key)

'''				<option value = '%d'>%s</option>
'''%(position,level)


'''
			</select>
		</div>
''' 
