POLICYHOLDER EMPLOYMENT STATUS, DOES PLAN HAVE A BOOK/LIST OF DOCTORS?, FILL OUT ANY PAPERWORK FOR PLAN, ESTABLISHMENT ID + POLICYHOLDER ID + RN, UNIQUE RECORD ID (EPRSIDX + DUPERSID), OUT-OF-RU POLICYHOLDER FLAG: 1 YES 2 NO, RATE EXPERIENCE WITH PLAN, PUF NUMBER WITH JOBSIDX, JOB IDENTIFIER, HSA W/THIS PLAN, POLICY HOLDER, COVERED @ INTERVIEW DATE OR 12/31, UNION PAID FOR PRIV PLAN PREMIUM, PERSON ID (DUID + PID), POLICYHOLDER'S DUPERSID, TYPE OF HI GOTTEN: DENTAL, ESTABLISHMENT ID, ELIG. FOR SATIS. PLAN QUEST: 1=YES 2=NO, STATUS - MONTH 19, STATUS - MONTH 24, STATUS - MONTH 3, STATUS - MONTH 4, STATUS - MONTH 5, STATUS - MONTH 6, STATUS - MONTH 7, STATUS - MONTH 8, STATUS - MONTH 1, STATUS - MONTH 10, STATUS - MONTH 11, STATUS - MONTH 12, STATUS - MONTH 13, STATUS - MONTH 14, STATUS - MONTH 15, STATUS - MONTH 16, STATUS - MONTH 17, STATUS - MONTH 18, STATUS - MONTH 2, STATUS - MONTH 20, STATUS - MONTH 21, STATUS - MONTH 22, STATUS - MONTH 23, HAS CALLED CUSTOMER SERVICE/ADMIN OFFICE, ANNUAL OUT-OF-POCKET PREMIUM (ED/IMP), HAS THERE BEEN A CHANGE IN PLAN NAME, COBRA COVERAGE: 1=YES 2=NO, STATUS - MONTH 9, EDITED PREMLEVL, HOW MUCH PROBLEM GETTING PERSONAL DOC, INFORMATION ON HOW PLAN WORKS, DECEASED POLICYHOLDER FLAG: 1 YES 2 NO, PLAN REQRD COVRD PERS USE GATEKEEPER, PERSON IN POINT-IN-TIME PUF, CMJ AS THE SOURCE OF PLAN: 1 YES 2 NO, POLICY COVERS PERS NOT IN RU, PHLDR NOT IN FY OR PIT PUFS, 1=OOPPREMX ED/IMP ELSE 0, MONTHLY OUT-OF-POCKET PREMIUM, MONTHLY OUT-OF-POCKET PREMIUM (ED/IMP), FLAG: POLICYHOLDER ESTB HAS PREMIUM, PROBLEM WITH PLAN PAPERWORK, EMPLOYER PAID FOR PRIV PLAN PREMIUM, SOME GOVT PAID FOR PRIV PLAN PREMIUM, FEDERAL GOVT PAID FOR PRIV PLAN PREMIUM, OTHER PAID FOR PRIV PLAN PREMIUM, NEED APPROVAL FOR TREATMENT, STATE GOVT PAID FOR PRIV PLAN PREMIUM, LOCAL GOVT PAID FOR PRIV PLAN PREMIUM, DATE:    August 4 2014, TYPE OF HI GOTTEN: HOSPITAL/HMO (EDITED), TYPE OF ESTABLISHMENT, HMO COVERAGE (FROM PRPL), DEPENDENT OF POLICY HOLDER, TYPE OF HI GOTTEN: VISION, TYPE OF HI GOTTEN: MEDIGAP (EDITED), ROUND NUMBER, PERSON IN FY PUFS, DELAY WAITING FOR APPROVAL, ANNUAL DEDUCTIBLE, JOBSIDX INFERRED RATHER THAN REPORTED ID, PROBLEM GETTING HELP FROM CUST SERVICE, COVERAGE @INTVW: 1=SINGLE 2=FAMILY, TYPE OF HI GOTTEN: PRESCRIPTION DRUG, PANEL NUMBER, PROBLEM FINDING INFORMATION, CATEGORY OF PRIVATE COVERAGE, 
200042A002120004101120004101,20004101,20004101,200042A0021,200042A0021200041011,17,1,20004101101,00,150,1,1,01,-1,1,0,01,01,01,01,01,01,-1,-1,-1,-1,-1,-1,-1,-1,-1,-1,-1,-1,-1,-1,-1,-1,-1,-1,-1,2,2,2,02,02,01,01,02,01,01,01,-1,2,1,00240.00,0240.00,02880.00,00,02,02,02,02,02,01,01,02,1 ,-1,02,02,02,-1,-1,2,-1,-1,-1,-1,-1,-1,-1,-1,-1,-1
200042A002120004101120004102,20004102,20004101,200042A0021,200042A0021200041011,17,1,20004101101,00,150,1,1,01,-1,0,1,01,01,01,01,01,01,-1,-1,-1,-1,-1,-1,-1,-1,-1,-1,-1,-1,-1,-1,-1,-1,-1,-1,-1,2,2,2,02,02,01,01,02,01,01,01,-1,2,1,00240.00,0240.00,02880.00,00,02,02,02,02,02,01,01,02,1 ,-1,02,02,02,-1,-1,2,-1,-1,-1,-1,-1,-1,-1,-1,-1,-1
200042A002120004101120004103,20004103,20004101,200042A0021,200042A0021200041011,17,1,20004101101,00,150,1,1,01,-1,0,1,01,01,01,01,01,01,-1,-1,-1,-1,-1,-1,-1,-1,-1,-1,-1,-1,-1,-1,-1,-1,-1,-1,-1,2,2,2,02,02,01,01,02,01,01,01,-1,2,1,00240.00,0240.00,02880.00,00,02,02,02,02,02,01,01,02,1 ,-1,02,02,02,-1,-1,2,-1,-1,-1,-1,-1,-1,-1,-1,-1,-1
200042A002120004101220004101,20004101,20004101,200042A0021,200042A0021200041012,17,2,20004101201,00,150,1,1,01,-1,1,0,01,-1,-1,-1,-1,01,01,01,01,01,-1,-1,-1,-1,-1,-1,-1,-1,-1,-1,-1,-1,-1,-1,-1,2,2,2,02,02,01,01,02,01,01,01,-1,2,2,-0001.00,-001.00,-0001.00,-1,-1,-1,-1,-1,-1,-1,-1,-1,-1,-1,02,02,02,-1,02,1,03,02,-1,02,-1,02,-1,02,-1,06
200042A002120004101220004102,20004102,20004101,200042A0021,200042A0021200041012,17,2,20004101201,00,150,1,1,01,-1,0,1,01,-1,-1,-1,-1,01,01,01,01,01,-1,-1,-1,-1,-1,-1,-1,-1,-1,-1,-1,-1,-1,-1,-1,2,2,2,02,02,01,01,02,01,01,01,-1,2,2,-0001.00,-001.00,-0001.00,-1,-1,-1,-1,-1,-1,-1,-1,-1,-1,-1,02,02,02,-1,02,1,03,02,-1,02,-1,02,-1,02,-1,06
200042A002120004101220004103,20004103,20004101,200042A0021,200042A0021200041012,17,2,20004101201,00,150,1,1,01,-1,0,1,01,-1,-1,-1,-1,01,01,01,01,01,-1,-1,-1,-1,-1,-1,-1,-1,-1,-1,-1,-1,-1,-1,-1,2,2,2,02,02,01,01,02,01,01,01,-1,2,2,-0001.00,-001.00,-0001.00,-1,-1,-1,-1,-1,-1,-1,-1,-1,-1,-1,02,02,02,-1,02,1,03,02,-1,02,-1,02,-1,02,-1,06
200042A002120004101320004101,20004101,20004101,200042A0021,200042A0021200041013,17,3,20004101301,00,150,1,1,01,-1,1,0,01,-1,-1,-1,-1,-1,-1,-1,-1,01,01,01,01,-1,-1,-1,-1,-1,-1,-1,-1,-1,-1,-1,-1,2,2,2,02,02,01,01,02,01,01,01,-1,2,2,-0001.00,-001.00,-0001.00,-1,-1,02,02,02,02,01,01,02,1 ,-1,02,02,02,-1,02,2,-1,-1,-1,-1,-1,-1,-1,-1,-1,-1
200042A002120004101320004102,20004102,20004101,200042A0021,200042A0021200041013,17,3,20004101301,00,150,1,1,01,-1,0,1,01,-1,-1,-1,-1,-1,-1,-1,-1,01,01,01,01,-1,-1,-1,-1,-1,-1,-1,-1,-1,-1,-1,-1,2,2,2,02,02,01,01,02,01,01,01,-1,2,2,-0001.00,-001.00,-0001.00,-1,-1,02,02,02,02,01,01,02,1 ,-1,02,02,02,-1,02,2,-1,-1,-1,-1,-1,-1,-1,-1,-1,-1
200042A002120004101320004103,20004103,20004101,200042A0021,200042A0021200041013,17,3,20004101301,00,150,1,1,01,-1,0,1,01,-1,-1,-1,-1,-1,-1,-1,-1,01,01,01,01,-1,-1,-1,-1,-1,-1,-1,-1,-1,-1,-1,-1,2,2,2,02,02,01,01,02,01,01,01,-1,2,2,-0001.00,-001.00,-0001.00,-1,-1,02,02,02,02,01,01,02,1 ,-1,02,02,02,-1,02,2,-1,-1,-1,-1,-1,-1,-1,-1,-1,-1
200109A003120010101120010101,20010101,20010101,200109A0031,200109A0031200101011,17,1,-1         ,-1,-01,1,1,-1,-1,1,0,01,01,01,-1,-1,-1,-1,-1,-1,-1,-1,-1,-1,-1,-1,-1,-1,-1,-1,-1,-1,-1,-1,-1,-1,2,2,2,02,06,02,01,02,02,02,01,-1,2,1,00521.00,0521.00,06252.00,00,01,-1,-1,-1,-1,-1,-1,-1,2 ,02,02,02,02,-1,-1,2,-1,-1,-1,-1,-1,-1,-1,-1,-1,-1
